Finite mixture representations of zero-&-N-inflated distributions for count-compositional data
…
- Motivating example

- Zero-&-N-inflated count-compositional distributions

- Extending with non-parametric regression

- Preliminary results and final remarks

---
## Motivating example

- Paleoclimate modelling (pollen counts): [Haslett et al. (2006)](#bib-Haslett2006); [Salter-Townshend et al. (2012)](#bib-SalterTownshend2012); [Parnell et al. (2015)](#bib-Parnell2015); [Ilvonen et al. (2016)](#bib-Ilvonen2016); [Tipton et al. (2019)](#bib-Tipton2019): 3 covariates and `\(d=28\)` categories.

```
## # A tibble: 7,832 × 31
##     gdd5  mtco aet.pet Pinus.D Betula Gramineae Picea Quercus.D Alnus Cyperaceae
##    <int> <dbl>   <dbl>   <int>  <int>     <int> <int>     <int> <int>      <int>
##  1  1874  -7.9   0.893     721    158         0     7        22    50          0
##  2  1623  -5.5   0.941     537     28         0   302        19    38          0
##  3  1475  -4.7   0.931     136    183         0   110         0   276          0
##  4  1360  -8.8   0.949     364    354         0   141         0   111          0
##  5  1295  -6.9   0.993     708     50         0   151         0    91          0
##  6  1539  -7.8   0.963     673    194         0    82         0    51          0
##  7  1526  -6.6   0.949     281    280         0    93        47   187          0
##  8  1553  -8.1   0.962     666    115         0   146         0    73          0
##  9  1459 -10.9   0.95      420    267         0   143         0    45          0
## 10  1283  -8.3   0.961     779     90         0   121         0    10          0
## # ℹ 7,822 more rows
## # ℹ 21 more variables: Chenopodiaceae <int>, Artemisia <int>, Quercus.E <int>,
## #   Salix <int>, Juniperus <int>, Ericales <int>, Fagus <int>, Abies <int>,
## #   Olea <int>, Ulmus <int>, Corylus <int>, Ostrya <int>, Pinus.H <int>,
## #   Cedrus <int>, Carpinus <int>, Pistacia <int>, Castanea <int>, Larix <int>,
## #   Tilia <int>, Ephedra <int>, Phillyrea <int>
```
…
